{
  "img": "http://www.newdesignfile.com/postpic/2014/07/generic-user-icon-windows_352871.png",
  "name": "Robert West",
  "id": 144,
  "user": "248244805463703554",
  "party": {
    "default": 0,
    "2021-09-28T00:00:00": 12,
    "2021-08-05T00:00:00": 8
  }
}