{
  "img": "https://upload.wikimedia.org/wikipedia/commons/6/66/Anas_Sarwar_MSP.jpg",
  "name": "Ishan Rao",
  "id": 102,
  "user": "",
  "party": {
    "default": 0,
    "2021-07-02T00:00:00": 0,
    "2021-03-26T00:00:00": 0,
    "2021-05-08T00:00:00": 2
  }
}