{
  "img": "http://www.newdesignfile.com/postpic/2014/07/generic-user-icon-windows_352871.png",
  "name": "David Owen",
  "id": 117,
  "user": "",
  "party": {
    "default": 0,
    "2019-05-26T00:00:00": 1
  }
}