{
  "img": "https://i0.wp.com/therealbookspy.com/wp-content/uploads/2019/01/Jeffrey-Archer-1-2655875219-1548635773608.jpg?fit=2724%2C3466&ssl=1",
  "name": "Geoffrey Archer",
  "id": 126,
  "user": "",
  "party": {
    "2020-12-15T00:00:00": 3,
    "2021-01-05T00:00:00": 2,
    "default": 0,
    "2020-12-29T00:00:00": 0
  }
}