{
  "img": "http://www.newdesignfile.com/postpic/2014/07/generic-user-icon-windows_352871.png",
  "name": "Looty Duŵr",
  "id": 167,
  "user": "",
  "party": {
    "default": 0,
    "2019-10-13T00:00:00": 3
  }
}