{
  "img": "http://www.newdesignfile.com/postpic/2014/07/generic-user-icon-windows_352871.png",
  "name": "Alwyn Flang",
  "id": 208,
  "user": "",
  "party": {
    "default": 0,
    "2019-04-08T00:00:00": 0,
    "2019-03-16T00:00:00": 18,
    "2019-04-15T00:00:00": 0
  }
}