{
  "img": "http://www.newdesignfile.com/postpic/2014/07/generic-user-icon-windows_352871.png",
  "name": "Nigel Bagshaw",
  "id": 211,
  "user": "",
  "party": {
    "default": 0,
    "2020-03-07T00:00:00": 2
  }
}