{
  "img": "http://www.newdesignfile.com/postpic/2014/07/generic-user-icon-windows_352871.png",
  "name": "John Marly",
  "id": 220,
  "user": "",
  "party": {
    "default": 0,
    "2019-03-30T00:00:00": 29
  }
}