{
  "img": "http://www.newdesignfile.com/postpic/2014/07/generic-user-icon-windows_352871.png",
  "name": "Nylian Salyards",
  "id": 229,
  "user": "",
  "party": {
    "default": 0,
    "2020-07-03T00:00:00": 1
  }
}