{
  "img": "http://www.newdesignfile.com/postpic/2014/07/generic-user-icon-windows_352871.png",
  "name": "Duncan MacLeod",
  "id": 259,
  "user": "",
  "party": {
    "2021-02-13T00:00:00": 3,
    "default": 0,
    "2021-01-08T00:00:00": 34
  }
}