{
  "img": "http://www.newdesignfile.com/postpic/2014/07/generic-user-icon-windows_352871.png",
  "name": "Bephen Stebb",
  "id": 263,
  "user": "",
  "party": {
    "default": 0,
    "2019-09-22T00:00:00": 2
  }
}