{
  "img": "http://www.newdesignfile.com/postpic/2014/07/generic-user-icon-windows_352871.png",
  "name": "Joseph Stevens",
  "id": 264,
  "user": "",
  "party": {
    "default": 0,
    "2021-01-15T00:00:00": 3
  }
}