{
  "user": "Pitt2004",
  "name": "Charles A. Gladstone",
  "aliases": [
    "Charles Gladstone"
  ],
  "facesteal": {
    "desc": "Jon Ossoff",
    "link": "https://upload.wikimedia.org/wikipedia/commons/thumb/9/97/Jon_Ossoff_Senate_Portrait_2021.jpg/1280px-Jon_Ossoff_Senate_Portrait_2021.jpg"
  },
  "affiliation": {
    "2020-05-09": "lib",
    "2020-06-03": "sdp",
    "2020-09-12": "alliance"
  }
}