{
  "user": "Dustin",
  "name": "Dustin Crowe",
  "facesteal": {
    "desc": "Andrew Bowie",
    "link": "https://upload.wikimedia.org/wikipedia/commons/thumb/a/a2/Official_portrait_of_Andrew_Bowie_MP_crop_2.jpg/1200px-Official_portrait_of_Andrew_Bowie_MP_crop_2.jpg"
  },
  "affiliation": {
    "2019-08-01": "progdem",
    "2019-09-12": "lab",
    "2021-02-10": "progdem",
    "2021-08-17": "lib"
  }
}
