{
  "user": "Dustin",
  "name": "Elliot Bouchard",
  "facesteal": {
    "desc": "Neil Gorsuch",
    "link": "https://g.acdn.no/obscura/API/dynamic/r1/nadp/tr_2000_2000_s_f/0000/2017/04/07/3423330605/1/original/3559023.jpg?chk=F81385"
  },
  "affiliation": {
    "2020-09-27": "upp",
    "2020-12-07": "con",
    "2021-02-12": "empty"
  }
}