{
  "user": "Bara",
  "name": "Elystan Gwyn Roberts",
  "aliases": [
	"Elystan Roberts"  
  ],
  "facesteal": {
    "desc": "Peppe Provenzano",
    "link": "https://uploads.celebheightwiki.com/images/19/peppe-provenzano.jpg"
  },
  "affiliation": {
    "2021-08-08": "csp",
    "2021-09-12": "empty"
  }
}
