{
    "user": "Krall",
    "name": "Felix Guest-Lyons",
    "facesteal": {
        "desc": "Henry Ashton, 4th Baron Ashton of Hyde",
        "link": "https://upload.wikimedia.org/wikipedia/commons/thumb/8/8e/Official_portrait_of_Lord_Ashton_of_Hyde_crop_2.jpg/800px-Official_portrait_of_Lord_Ashton_of_Hyde_crop_2.jpg"
    }
}