{
    "user": "TruthTeller",
    "name": "Felix Zouche",
    "aliases": [
      "Niko Bellic"
    ],
    "affiliation": {
      "2020-07-19": "sdp",
      "2020-07-24": "lab",
      "2020-08-17": "empty"
    },
    "facesteal": {
        "link": "https://xombp.prv.cymru/facesteal/felix.png"
    }
  }