{
  "user": "Llwty",
  "name": "Looty Duŵr",
  "aliases": [
    "Looty Duŵr"
  ],
  "affiliations": {
    "2019-11-01": "lab",
    "2020-06-30": "plaid",
    "2020-09-13": "lab",
    "2020-12-11": "empty"
  }
}