{
  "user": "Ongo",
  "name": "Malcom Lyndon Brogdy",
  "aliases": [
    "Malcom Brogdy"
  ],
  "facesteal": {
    "desc": "Rand Paul but mirrored horizontally",
    "link": "https://upload.wikimedia.org/wikipedia/commons/c/c2/Rand_Paul_by_Gage_Skidmore_10-11-10.jpg"
  },
  "affiliation": {
    "2020-06-30": "lab",
    "2020-07-17": "empty"
  }
}