{
  "user": "TruthTeller",
  "name": "Tim Stamper",
  "facesteal": {
    "desc": "Colin Jeavons",
    "link": "https://static.wikia.nocookie.net/eastenders/images/d/d9/Colin_Jeavons.JPG/revision/latest/scale-to-width-down/1000?cb=20190202003812"
  },
  "affiliation": {
    "2020-12-06": "lab",
    "2021-02-14": "empty"
  }
}