{
  "user": "Marijn",
  "name": "Xanthe Orpheus Florence",
  "birth": "-3500-01-01",
  "facesteal": {
    "desc": "Marianne Williamson",
    "link": "https://upload.wikimedia.org/wikipedia/commons/8/83/Marianne_Williamson_Profile.jpg"
  },
  "activePrefix": {
    "2019-10-21": "Dame Sir"
  },
  "peerages": {
    "1st Marquess of Florence": {
      "granted": "2019-03-29"
    }
  },
  "aliases": [
    "Xanthe-Orpheus Florence",
    "Xanthe–Orpheus Florence"
  ],
  "affiliation": {
    "2020-06-03": "crossbench",
    "2020-07-26": "gaia",
    "2021-01-17": "crossbench",
    "2021-07-06": "pagans",
    "2021-08-05": "crossbench",
    "2021-08-16": "gaia"
  }
}
