{
  "id": "health",
  "name": "Health Secretary",
  "department": "Department for Health and Social Care",
  "type": "government",
  "active": {
      "1854-10-14": true
  },
  "holder": {
      "2019-03-25": "Marcail Connolly",
      "2019-04-10": "Emma Swinson",
      "2019-06-11": "Bonnie Carmichael-Chow",
      "2019-08-28": "Philip T. Oliver",
      "2019-09-12": "Stephen Bebb",
      "2019-09-16": "Vacant",
      "2019-09-22": "Bephen Stebb",
      "2020-07-02": "Jessica Fletcher",
      "2020-07-11": "Looty Duŵr",
      "2021-01-09": "Colin Ray Jackson",
      "2021-05-16": "Nicholas Clack",
      "2021-07-28": "Gorban Smiljić",
      "2021-09-09": "Vacant"
  }
}