{
  "id": "homerule",
  "name": "Home Rule Secretary",
  "department": "Home Rule Office",
  "type": "government",
  "active": {
      "2021-05-16": true
  },
  "holder": {
      "2021-05-16": "Dustin Crowe",
      "2021-07-01": "George Vere",
      "2021-09-09": "Vacant"
  }
}