{
  "id": "lancaster",
  "name": "Chancellor of the Duchy of Lancaster",
  "department": "Cabinet Office",
  "type": "government",
  "active": {
      "1361-01-01": true,
      "2019-03-25": false,
      "2020-07-11": true,
      "2021-05-16": false,
      "2021-07-01": true
  },
  "holder": {
      "2020-07-11": "George Vere",
      "2021-05-16": "Vacant",
      "2021-06-30": "Dustin Crowe",
      "2021-09-09": "Vacant"
  }
}