{
  "id": "pm",
  "name": "Prime Minister",
  "department": "Cabinet Office",
  "type": "government",
  "active": {
      "1721-04-03": true
  },
  "privyCouncil": true,
  "holder": {
      "2019-03-25": "Nicholas Clack",
      "2019-04-10": "James Krall",
      "2019-06-11": "Nicholas Clack",
      "2019-08-01": "Dafydd Llwyd",
      "2020-06-05": "Zachary Henderson",
      "2020-07-02": "Stephen Percy",
      "2020-07-11": "Arthur Haigh",
      "2020-12-11": "Alexander Helios",
      "2021-01-09": "George Herbert Vere",
      "2021-05-16": "Dustin Crowe",
      "2021-06-30": "Charles A. Gladstone"
  }
}