{
  "img": "http://www.newdesignfile.com/postpic/2014/07/generic-user-icon-windows_352871.png",
  "name": "Rayof Light",
  "id": 141,
  "user": "144614360491229185",
  "party": {
    "default": 0,
    "2021-10-01T00:00:00": 29,
    "2021-10-02T00:00:00": 38
  }
}