{
  "name": "Protecting Pensions Bill",
  "stages": {
    "0": {
      "date": "2019-04-17",
      "stage": "FIRST",
      "house": "COMMONS",
      "divisions": {},
      "status": "FINISHED"
    },
    "1": {
      "date": "2019-04-26",
      "stage": "SECOND",
      "house": "COMMONS",
      "divisions": {"0": {
        "votes": {
          "160": "DID_NOT_VOTE",
          "194": "IN_FAVOUR",
          "173": "IN_FAVOUR",
          "174": "IN_FAVOUR",
          "130": "ABSTENTION",
          "196": "IN_FAVOUR",
          "175": "DID_NOT_VOTE",
          "142": "IN_FAVOUR",
          "100": "IN_FAVOUR",
          "133": "IN_FAVOUR",
          "166": "IN_FAVOUR",
          "145": "IN_FAVOUR",
          "112": "IN_FAVOUR",
          "113": "ABSTENTION",
          "169": "IN_FAVOUR",
          "147": "IN_FAVOUR",
          "235": "IN_FAVOUR",
          "137": "IN_FAVOUR",
          "207": "IN_FAVOUR",
          "109": "IN_FAVOUR"
        },
        "title": "2nd Reading"
      }},
      "status": "FINISHED"
    },
    "2": {
      "date": "2019-05-03",
      "stage": "THIRD",
      "house": "COMMONS",
      "divisions": {"0": {
        "votes": {
          "160": "IN_FAVOUR",
          "194": "IN_FAVOUR",
          "173": "IN_FAVOUR",
          "174": "IN_FAVOUR",
          "130": "DID_NOT_VOTE",
          "196": "DID_NOT_VOTE",
          "175": "IN_FAVOUR",
          "142": "IN_FAVOUR",
          "100": "IN_FAVOUR",
          "133": "IN_FAVOUR",
          "166": "IN_FAVOUR",
          "145": "IN_FAVOUR",
          "112": "IN_FAVOUR",
          "113": "DID_NOT_VOTE",
          "169": "IN_FAVOUR",
          "147": "IN_FAVOUR",
          "235": "IN_FAVOUR",
          "137": "IN_FAVOUR",
          "207": "IN_FAVOUR",
          "109": "IN_FAVOUR"
        },
        "title": "3rd Reading"
      }},
      "status": "FINISHED"
    },
    "3": {
      "date": "2019-05-04",
      "stage": "FIRST",
      "house": "LORDS",
      "divisions": {},
      "status": "FINISHED"
    },
    "4": {
      "date": "2019-05-11",
      "stage": "SECOND",
      "house": "LORDS",
      "divisions": {"0": {
        "votes": {
          "107": "IN_FAVOUR",
          "221": "DID_NOT_VOTE",
          "222": "DID_NOT_VOTE",
          "223": "DID_NOT_VOTE",
          "197": "IN_FAVOUR",
          "216": "DID_NOT_VOTE"
        },
        "title": "2nd Reading"
      }},
      "status": "FINISHED"
    },
    "5": {
      "date": "2019-05-17",
      "stage": "THIRD",
      "house": "LORDS",
      "divisions": {"0": {
        "votes": {
          "107": "IN_FAVOUR",
          "221": "IN_FAVOUR",
          "222": "DID_NOT_VOTE",
          "223": "IN_FAVOUR",
          "197": "IN_FAVOUR",
          "216": "DID_NOT_VOTE"
        },
        "title": "3rd Reading"
      }},
      "status": "FINISHED"
    },
    "6": {
      "date": "2019-05-18",
      "stage": "ROYAL_ASSENT",
      "house": "OTHER",
      "divisions": {}
    }
  },
  "id": "B006",
  "type": "BILL",
  "status": "SPENT",
  "longName": "Protecting Pensions Bill"
}