{
  "name": "Gender and Sexuality Bill",
  "stages": {
    "0": {
      "date": "2019-07-03",
      "stage": "FIRST",
      "house": "COMMONS",
      "divisions": {},
      "status": "FINISHED"
    },
    "1": {
      "date": "2019-07-05",
      "stage": "SECOND",
      "house": "COMMONS",
      "divisions": {"0": {
        "votes": {
          "160": "IN_FAVOUR",
          "194": "IN_FAVOUR",
          "140": "ABSTENTION",
          "174": "ABSTENTION",
          "185": "IN_FAVOUR",
          "175": "ABSTENTION",
          "142": "IN_FAVOUR",
          "100": "IN_FAVOUR",
          "133": "IN_FAVOUR",
          "166": "DID_NOT_VOTE",
          "145": "IN_FAVOUR",
          "223": "DID_NOT_VOTE",
          "169": "IN_FAVOUR",
          "147": "DID_NOT_VOTE",
          "127": "IN_FAVOUR",
          "138": "DID_NOT_VOTE",
          "117": "IN_FAVOUR",
          "207": "IN_FAVOUR",
          "109": "IN_FAVOUR"
        },
        "title": "2nd Reading"
      }},
      "status": "FINISHED"
    }
  },
  "id": "B012",
  "type": "BILL",
  "status": "WITHDRAWN",
  "longName": "Gender and Sexuality Bill"
}