{
  "name": "Representation of the People Bill",
  "stages": {
    "0": {
      "date": "2019-10-17",
      "stage": "FIRST",
      "house": "COMMONS",
      "divisions": {},
      "status": "FINISHED"
    },
    "1": {
      "date": "2019-10-27",
      "stage": "SECOND",
      "house": "COMMONS",
      "divisions": {"0": {
        "votes": {
          "161": "IN_FAVOUR",
          "150": "DID_NOT_VOTE",
          "194": "IN_FAVOUR",
          "140": "AGAINST",
          "250": "IN_FAVOUR",
          "174": "AGAINST",
          "240": "DID_NOT_VOTE",
          "185": "IN_FAVOUR",
          "175": "AGAINST",
          "241": "IN_FAVOUR",
          "154": "ABSTENTION",
          "100": "AGAINST",
          "210": "AGAINST",
          "243": "DID_NOT_VOTE",
          "201": "IN_FAVOUR",
          "246": "IN_FAVOUR",
          "125": "IN_FAVOUR",
          "147": "DID_NOT_VOTE",
          "225": "ABSTENTION",
          "159": "IN_FAVOUR",
          "127": "ABSTENTION",
          "138": "AGAINST",
          "207": "DID_NOT_VOTE"
        },
        "title": "2nd Reading"
      }},
      "status": "FINISHED"
    },
    "2": {
      "date": "2019-11-10",
      "stage": "REPORT",
      "house": "COMMONS",
      "divisions": {"0": {
        "votes": {
          "161": "DID_NOT_VOTE",
          "150": "DID_NOT_VOTE",
          "194": "IN_FAVOUR",
          "140": "IN_FAVOUR",
          "250": "IN_FAVOUR",
          "174": "IN_FAVOUR",
          "251": "IN_FAVOUR",
          "175": "DID_NOT_VOTE",
          "241": "IN_FAVOUR",
          "154": "IN_FAVOUR",
          "100": "IN_FAVOUR",
          "133": "IN_FAVOUR",
          "210": "IN_FAVOUR",
          "243": "DID_NOT_VOTE",
          "244": "IN_FAVOUR",
          "223": "DID_NOT_VOTE",
          "201": "IN_FAVOUR",
          "246": "DID_NOT_VOTE",
          "125": "IN_FAVOUR",
          "225": "IN_FAVOUR",
          "127": "IN_FAVOUR",
          "138": "IN_FAVOUR",
          "109": "IN_FAVOUR"
        },
        "title": "Amendment A"
      }},
      "status": "FINISHED"
    },
    "3": {
      "date": "2019-11-15",
      "stage": "THIRD",
      "house": "COMMONS",
      "divisions": {"0": {
        "votes": {
          "161": "DID_NOT_VOTE",
          "150": "IN_FAVOUR",
          "194": "IN_FAVOUR",
          "140": "IN_FAVOUR",
          "250": "IN_FAVOUR",
          "174": "IN_FAVOUR",
          "251": "IN_FAVOUR",
          "175": "IN_FAVOUR",
          "241": "DID_NOT_VOTE",
          "154": "IN_FAVOUR",
          "100": "IN_FAVOUR",
          "133": "IN_FAVOUR",
          "210": "IN_FAVOUR",
          "243": "IN_FAVOUR",
          "244": "IN_FAVOUR",
          "223": "DID_NOT_VOTE",
          "201": "IN_FAVOUR",
          "246": "DID_NOT_VOTE",
          "125": "IN_FAVOUR",
          "225": "DID_NOT_VOTE",
          "127": "IN_FAVOUR",
          "138": "IN_FAVOUR",
          "109": "IN_FAVOUR"
        },
        "title": "3rd Reading"
      }},
      "status": "FINISHED"
    },
    "4": {
      "date": "2019-11-24",
      "stage": "SECOND",
      "house": "LORDS",
      "divisions": {"0": {
        "votes": {
          "107": "IN_FAVOUR",
          "167": "DID_NOT_VOTE",
          "114": "IN_FAVOUR",
          "159": "DID_NOT_VOTE",
          "262": "IN_FAVOUR"
        },
        "title": "2nd Reading"
      }},
      "status": "FINISHED"
    },
    "5": {
      "date": "2019-12-07",
      "stage": "THIRD",
      "house": "LORDS",
      "divisions": {"0": {
        "votes": {
          "107": "IN_FAVOUR",
          "167": "IN_FAVOUR",
          "114": "IN_FAVOUR",
          "169": "DID_NOT_VOTE",
          "262": "IN_FAVOUR"
        },
        "title": "3rd Reading"
      }},
      "status": "FINISHED"
    },
    "6": {
      "date": "2019-12-21",
      "stage": "ROYAL_ASSENT",
      "house": "OTHER",
      "divisions": {}
    }
  },
  "id": "B019",
  "type": "BILL",
  "status": "SPENT",
  "longName": "Representation of the People Bill"
}