{
  "name": "Microtransaction Age-Limit Bill",
  "stages": {
    "0": {
      "date": "2019-11-27",
      "stage": "FIRST",
      "house": "COMMONS",
      "divisions": {},
      "status": "FINISHED"
    },
    "1": {
      "date": "2019-11-30",
      "stage": "SECOND",
      "house": "COMMONS",
      "divisions": {"0": {
        "votes": {
          "161": "IN_FAVOUR",
          "150": "DID_NOT_VOTE",
          "194": "IN_FAVOUR",
          "140": "IN_FAVOUR",
          "250": "IN_FAVOUR",
          "174": "IN_FAVOUR",
          "251": "DID_NOT_VOTE",
          "175": "IN_FAVOUR",
          "241": "IN_FAVOUR",
          "154": "IN_FAVOUR",
          "100": "AGAINST",
          "133": "IN_FAVOUR",
          "210": "IN_FAVOUR",
          "244": "IN_FAVOUR",
          "201": "IN_FAVOUR",
          "125": "IN_FAVOUR",
          "225": "IN_FAVOUR",
          "203": "ABSTENTION",
          "127": "IN_FAVOUR",
          "138": "IN_FAVOUR",
          "109": "IN_FAVOUR"
        },
        "title": "2nd Reading"
      }},
      "status": "FINISHED"
    },
    "2": {
      "date": "2019-12-07",
      "stage": "REPORT",
      "house": "COMMONS",
      "divisions": {"0": {
        "votes": {
          "161": "DID_NOT_VOTE",
          "150": "IN_FAVOUR",
          "194": "IN_FAVOUR",
          "140": "IN_FAVOUR",
          "250": "IN_FAVOUR",
          "174": "DID_NOT_VOTE",
          "251": "DID_NOT_VOTE",
          "175": "IN_FAVOUR",
          "241": "DID_NOT_VOTE",
          "154": "IN_FAVOUR",
          "100": "IN_FAVOUR",
          "133": "IN_FAVOUR",
          "210": "IN_FAVOUR",
          "244": "IN_FAVOUR",
          "201": "DID_NOT_VOTE",
          "125": "DID_NOT_VOTE",
          "225": "IN_FAVOUR",
          "203": "DID_NOT_VOTE",
          "247": "DID_NOT_VOTE",
          "127": "IN_FAVOUR",
          "138": "IN_FAVOUR",
          "109": "IN_FAVOUR"
        },
        "title": "Amendment A"
      }},
      "status": "FINISHED"
    },
    "3": {
      "date": "2020-01-05",
      "stage": "THIRD",
      "house": "COMMONS",
      "divisions": {"0": {
        "votes": {
          "161": "IN_FAVOUR",
          "150": "DID_NOT_VOTE",
          "140": "IN_FAVOUR",
          "250": "IN_FAVOUR",
          "174": "IN_FAVOUR",
          "251": "IN_FAVOUR",
          "120": "DID_NOT_VOTE",
          "175": "IN_FAVOUR",
          "241": "IN_FAVOUR",
          "154": "IN_FAVOUR",
          "133": "IN_FAVOUR",
          "210": "IN_FAVOUR",
          "244": "IN_FAVOUR",
          "245": "IN_FAVOUR",
          "201": "IN_FAVOUR",
          "125": "IN_FAVOUR",
          "225": "IN_FAVOUR",
          "203": "DID_NOT_VOTE",
          "247": "DID_NOT_VOTE",
          "127": "DID_NOT_VOTE",
          "138": "IN_FAVOUR",
          "109": "IN_FAVOUR"
        },
        "title": "3rd Reading"
      }},
      "status": "FINISHED"
    },
    "4": {
      "date": "2020-01-17",
      "stage": "FIRST",
      "house": "LORDS",
      "divisions": {},
      "status": "FINISHED"
    },
    "5": {
      "date": "2020-01-25",
      "stage": "SECOND",
      "house": "LORDS",
      "divisions": {"0": {
        "votes": {
          "107": "AGAINST",
          "167": "IN_FAVOUR",
          "114": "AGAINST",
          "169": "IN_FAVOUR",
          "159": "AGAINST"
        },
        "title": "2nd Reading"
      }},
      "status": "FINISHED"
    },
    "6": {
      "date": "2020-01-30",
      "stage": "FIRST",
      "house": "COMMONS",
      "divisions": {},
      "status": "FINISHED"
    },
    "7": {
      "date": "2020-02-09",
      "stage": "THIRD",
      "house": "COMMONS",
      "divisions": {},
      "status": "FINISHED"
    },
    "8": {
      "date": "2020-03-18",
      "stage": "ROYAL_ASSENT",
      "house": "OTHER",
      "divisions": {}
    }
  },
  "id": "B025",
  "type": "BILL",
  "status": "ROYAL_ASSENT",
  "longName": "Microtransaction Age-Limit Bill"
}