{
  "name": "Green Belt Protection Bill",
  "stages": {
    "0": {
      "date": "2020-06-12",
      "stage": "FIRST",
      "house": "COMMONS",
      "divisions": {},
      "status": "FINISHED"
    },
    "1": {
      "date": "2020-06-19",
      "stage": "SECOND",
      "house": "COMMONS",
      "divisions": {"0": {
        "votes": {
          "161": "DID_NOT_VOTE",
          "140": "AGAINST",
          "174": "AGAINST",
          "120": "AGAINST",
          "164": "IN_FAVOUR",
          "154": "IN_FAVOUR",
          "122": "DID_NOT_VOTE",
          "167": "IN_FAVOUR",
          "212": "IN_FAVOUR",
          "203": "IN_FAVOUR",
          "149": "IN_FAVOUR",
          "127": "AGAINST",
          "139": "IN_FAVOUR",
          "129": "IN_FAVOUR",
          "108": "IN_FAVOUR"
        },
        "title": "2nd Reading"
      }},
      "status": "FINISHED"
    },
    "2": {
      "date": "2020-06-28",
      "stage": "REPORT",
      "house": "COMMONS",
      "divisions": {
        "0": {
          "votes": {
            "161": "DID_NOT_VOTE",
            "140": "IN_FAVOUR",
            "174": "DID_NOT_VOTE",
            "120": "IN_FAVOUR",
            "164": "IN_FAVOUR",
            "154": "IN_FAVOUR",
            "122": "IN_FAVOUR",
            "167": "ABSTENTION",
            "212": "DID_NOT_VOTE",
            "203": "IN_FAVOUR",
            "149": "ABSTENTION",
            "127": "IN_FAVOUR",
            "139": "ABSTENTION",
            "129": "IN_FAVOUR",
            "108": "DID_NOT_VOTE"
          },
          "title": "Amendment A"
        },
        "1": {
          "votes": {
            "161": "DID_NOT_VOTE",
            "140": "DID_NOT_VOTE",
            "174": "DID_NOT_VOTE",
            "120": "IN_FAVOUR",
            "164": "IN_FAVOUR",
            "154": "IN_FAVOUR",
            "122": "IN_FAVOUR",
            "167": "IN_FAVOUR",
            "212": "DID_NOT_VOTE",
            "203": "IN_FAVOUR",
            "149": "IN_FAVOUR",
            "127": "DID_NOT_VOTE",
            "139": "IN_FAVOUR",
            "129": "IN_FAVOUR",
            "108": "DID_NOT_VOTE"
          },
          "title": "Amendment B"
        }
      },
      "status": "FINISHED"
    },
    "3": {
      "date": "2020-07-03",
      "stage": "THIRD",
      "house": "COMMONS",
      "divisions": {"0": {
        "votes": {
          "161": "AGAINST",
          "174": "AGAINST",
          "120": "AGAINST",
          "164": "DID_NOT_VOTE",
          "154": "AGAINST",
          "122": "AGAINST",
          "211": "AGAINST",
          "212": "AGAINST",
          "103": "IN_FAVOUR",
          "203": "AGAINST",
          "149": "IN_FAVOUR",
          "139": "IN_FAVOUR",
          "129": "AGAINST",
          "108": "DID_NOT_VOTE"
        },
        "title": "3rd Reading"
      }},
      "status": "FINISHED"
    }
  },
  "id": "B028",
  "type": "BILL",
  "status": "REJECTED",
  "longName": "Green Belt Protection Bill"
}