{
  "name": "Green Belt Reform (Environmental Protection) Amendment Bill",
  "stages": {
    "0": {
      "date": "2020-06-21",
      "stage": "FIRST",
      "house": "COMMONS",
      "divisions": {},
      "status": "FINISHED"
    },
    "1": {
      "date": "2020-06-26",
      "stage": "SECOND",
      "house": "COMMONS",
      "divisions": {"0": {
        "votes": {
          "161": "DID_NOT_VOTE",
          "140": "AGAINST",
          "174": "AGAINST",
          "120": "AGAINST",
          "164": "IN_FAVOUR",
          "154": "IN_FAVOUR",
          "122": "IN_FAVOUR",
          "167": "IN_FAVOUR",
          "212": "IN_FAVOUR",
          "203": "IN_FAVOUR",
          "149": "IN_FAVOUR",
          "127": "AGAINST",
          "139": "IN_FAVOUR",
          "129": "IN_FAVOUR",
          "108": "IN_FAVOUR"
        },
        "title": "2nd Reading"
      }},
      "status": "FINISHED"
    },
    "2": {
      "date": "2020-07-17",
      "stage": "THIRD",
      "house": "COMMONS",
      "divisions": {"0": {
        "votes": {
          "181": "ABSTENTION",
          "161": "ABSTENTION",
          "151": "ABSTENTION",
          "174": "AGAINST",
          "120": "AGAINST",
          "164": "IN_FAVOUR",
          "198": "ABSTENTION",
          "122": "AGAINST",
          "255": "AGAINST",
          "211": "ABSTENTION",
          "179": "ABSTENTION",
          "202": "ABSTENTION",
          "203": "ABSTENTION",
          "104": "AGAINST",
          "149": "IN_FAVOUR",
          "139": "IN_FAVOUR",
          "107": "AGAINST",
          "108": "ABSTENTION",
          "229": "ABSTENTION"
        },
        "title": "3rd Reading"
      }},
      "status": "FINISHED"
    }
  },
  "id": "B030",
  "type": "BILL",
  "status": "REJECTED",
  "longName": "Green Belt Reform (Environmental Protection) Amendment Bill"
}