{
  "name": "Separation of Church and State Bill",
  "stages": {
    "0": {
      "date": "2020-07-01",
      "stage": "FIRST",
      "house": "COMMONS",
      "divisions": {},
      "status": "FINISHED"
    },
    "1": {
      "date": "2020-07-04",
      "stage": "SECOND",
      "house": "COMMONS",
      "divisions": {"0": {
        "votes": {
          "161": "IN_FAVOUR",
          "174": "AGAINST",
          "120": "AGAINST",
          "164": "IN_FAVOUR",
          "154": "AGAINST",
          "122": "IN_FAVOUR",
          "211": "AGAINST",
          "212": "AGAINST",
          "103": "IN_FAVOUR",
          "203": "AGAINST",
          "149": "IN_FAVOUR",
          "139": "IN_FAVOUR",
          "129": "AGAINST",
          "108": "IN_FAVOUR",
          "229": "AGAINST"
        },
        "title": "2nd Reading"
      }},
      "status": "FINISHED"
    }
  },
  "id": "B035",
  "type": "BILL",
  "status": "REJECTED",
  "longName": "Separation of Church and State Bill"
}