{
  "name": "Internet Infrastructure Protection Bill",
  "stages": {
    "0": {
      "date": "2020-07-02",
      "stage": "FIRST",
      "house": "COMMONS",
      "divisions": {},
      "status": "FINISHED"
    },
    "1": {
      "date": "2020-07-19",
      "stage": "SECOND",
      "house": "COMMONS",
      "divisions": {"0": {
        "votes": {
          "181": "IN_FAVOUR",
          "161": "IN_FAVOUR",
          "151": "IN_FAVOUR",
          "174": "IN_FAVOUR",
          "120": "IN_FAVOUR",
          "164": "IN_FAVOUR",
          "198": "IN_FAVOUR",
          "254": "IN_FAVOUR",
          "122": "IN_FAVOUR",
          "255": "IN_FAVOUR",
          "211": "IN_FAVOUR",
          "179": "IN_FAVOUR",
          "202": "IN_FAVOUR",
          "203": "IN_FAVOUR",
          "104": "IN_FAVOUR",
          "149": "IN_FAVOUR",
          "139": "IN_FAVOUR",
          "107": "IN_FAVOUR",
          "108": "IN_FAVOUR",
          "229": "IN_FAVOUR"
        },
        "title": "2nd Reading"
      }},
      "status": "FINISHED"
    },
    "2": {
      "date": "2020-07-31",
      "stage": "THIRD",
      "house": "COMMONS",
      "divisions": {"0": {
        "votes": {
          "171": "IN_FAVOUR",
          "161": "IN_FAVOUR",
          "151": "IN_FAVOUR",
          "174": "AGAINST",
          "241": "DID_NOT_VOTE",
          "120": "DID_NOT_VOTE",
          "164": "DID_NOT_VOTE",
          "198": "IN_FAVOUR",
          "253": "IN_FAVOUR",
          "122": "DID_NOT_VOTE",
          "123": "IN_FAVOUR",
          "255": "IN_FAVOUR",
          "211": "AGAINST",
          "179": "DID_NOT_VOTE",
          "202": "DID_NOT_VOTE",
          "203": "IN_FAVOUR",
          "104": "AGAINST",
          "149": "IN_FAVOUR",
          "107": "IN_FAVOUR",
          "108": "IN_FAVOUR"
        },
        "title": "3rd Reading"
      }},
      "status": "FINISHED"
    },
    "3": {
      "date": "2020-07-31",
      "stage": "FIRST",
      "house": "LORDS",
      "divisions": {},
      "status": "FINISHED"
    },
    "4": {
      "date": "2020-08-07",
      "stage": "SECOND",
      "house": "LORDS",
      "divisions": {"0": {
        "votes": {
          "154": "IN_FAVOUR",
          "199": "IN_FAVOUR",
          "167": "DID_NOT_VOTE",
          "156": "IN_FAVOUR",
          "168": "IN_FAVOUR",
          "169": "ABSTENTION",
          "125": "IN_FAVOUR",
          "159": "AGAINST",
          "139": "IN_FAVOUR",
          "181": "DID_NOT_VOTE",
          "175": "IN_FAVOUR"
        },
        "title": "2nd Reading"
      }},
      "status": "FINISHED"
    },
    "5": {
      "date": "2020-08-22",
      "stage": "THIRD",
      "house": "LORDS",
      "divisions": {"0": {
        "votes": {
          "181": "IN_FAVOUR",
          "175": "DID_NOT_VOTE",
          "110": "IN_FAVOUR",
          "231": "DID_NOT_VOTE",
          "199": "IN_FAVOUR",
          "133": "IN_FAVOUR",
          "167": "IN_FAVOUR",
          "156": "IN_FAVOUR",
          "135": "IN_FAVOUR",
          "169": "IN_FAVOUR",
          "125": "IN_FAVOUR",
          "159": "IN_FAVOUR",
          "139": "IN_FAVOUR"
        },
        "title": "3rd Reading"
      }},
      "status": "FINISHED"
    },
    "6": {
      "date": "2020-08-23",
      "stage": "ROYAL_ASSENT",
      "house": "OTHER",
      "divisions": {}
    }
  },
  "id": "B038",
  "type": "BILL",
  "status": "ROYAL_ASSENT",
  "longName": "Internet Infrastructure Protection Bill"
}