{
  "name": "Anti Semitism Prevention Bill",
  "stages": {
    "11": {
      "date": "2020-09-05",
      "stage": "REPORT",
      "house": "COMMONS",
      "divisions": {"0": {
        "votes": {
          "190": "DID_NOT_VOTE",
          "182": "DID_NOT_VOTE",
          "171": "IN_FAVOUR",
          "161": "IN_FAVOUR",
          "151": "IN_FAVOUR",
          "174": "AGAINST",
          "252": "IN_FAVOUR",
          "241": "DID_NOT_VOTE",
          "120": "AGAINST",
          "164": "DID_NOT_VOTE",
          "198": "IN_FAVOUR",
          "188": "DID_NOT_VOTE",
          "123": "IN_FAVOUR",
          "211": "DID_NOT_VOTE",
          "179": "DID_NOT_VOTE",
          "203": "IN_FAVOUR",
          "104": "AGAINST",
          "149": "IN_FAVOUR",
          "107": "ABSTENTION",
          "108": "IN_FAVOUR"
        },
        "title": "Amendment A"
      }},
      "status": "FINISHED"
    },
    "12": {
      "date": "2020-09-06",
      "stage": "THIRD",
      "house": "COMMONS",
      "divisions": {"0": {
        "votes": {
          "190": "DID_NOT_VOTE",
          "182": "DID_NOT_VOTE",
          "171": "IN_FAVOUR",
          "161": "DID_NOT_VOTE",
          "151": "IN_FAVOUR",
          "174": "IN_FAVOUR",
          "252": "IN_FAVOUR",
          "241": "IN_FAVOUR",
          "120": "ABSTENTION",
          "164": "DID_NOT_VOTE",
          "198": "IN_FAVOUR",
          "188": "IN_FAVOUR",
          "123": "IN_FAVOUR",
          "211": "DID_NOT_VOTE",
          "179": "IN_FAVOUR",
          "203": "DID_NOT_VOTE",
          "104": "ABSTENTION",
          "149": "IN_FAVOUR",
          "107": "IN_FAVOUR",
          "108": "IN_FAVOUR"
        },
        "title": "3rd Reading"
      }},
      "status": "FINISHED"
    },
    "13": {
      "date": "2020-09-07",
      "stage": "FIRST",
      "house": "LORDS",
      "divisions": {},
      "status": "FINISHED"
    },
    "14": {
      "date": "2020-09-25",
      "stage": "THIRD",
      "house": "LORDS",
      "divisions": {"0": {
        "votes": {
          "110": "ABSTENTION",
          "154": "IN_FAVOUR",
          "199": "IN_FAVOUR",
          "133": "DID_NOT_VOTE",
          "167": "IN_FAVOUR",
          "156": "IN_FAVOUR",
          "135": "IN_FAVOUR",
          "125": "IN_FAVOUR",
          "116": "DID_NOT_VOTE",
          "139": "IN_FAVOUR",
          "181": "DID_NOT_VOTE",
          "175": "IN_FAVOUR"
        },
        "title": "3rd Reading"
      }},
      "status": "FINISHED"
    },
    "15": {
      "date": "2020-09-26",
      "stage": "ROYAL_ASSENT",
      "house": "OTHER",
      "divisions": {}
    },
    "0": {
      "date": "2020-07-03",
      "stage": "FIRST",
      "house": "COMMONS",
      "divisions": {},
      "status": "FINISHED"
    },
    "1": {
      "date": "2020-07-24",
      "stage": "SECOND",
      "house": "COMMONS",
      "divisions": {"0": {
        "votes": {
          "181": "ABSTENTION",
          "161": "IN_FAVOUR",
          "151": "IN_FAVOUR",
          "174": "ABSTENTION",
          "120": "IN_FAVOUR",
          "164": "ABSTENTION",
          "198": "IN_FAVOUR",
          "254": "IN_FAVOUR",
          "122": "IN_FAVOUR",
          "255": "IN_FAVOUR",
          "211": "IN_FAVOUR",
          "179": "IN_FAVOUR",
          "202": "IN_FAVOUR",
          "203": "IN_FAVOUR",
          "104": "IN_FAVOUR",
          "149": "IN_FAVOUR",
          "139": "DID_NOT_VOTE",
          "107": "IN_FAVOUR",
          "108": "IN_FAVOUR"
        },
        "title": "2nd Reading"
      }},
      "status": "FINISHED"
    },
    "2": {
      "date": "2020-08-07",
      "stage": "REPORT",
      "house": "COMMONS",
      "divisions": {"0": {
        "votes": {
          "171": "IN_FAVOUR",
          "161": "IN_FAVOUR",
          "151": "IN_FAVOUR",
          "174": "IN_FAVOUR",
          "241": "DID_NOT_VOTE",
          "120": "IN_FAVOUR",
          "164": "IN_FAVOUR",
          "198": "IN_FAVOUR",
          "253": "IN_FAVOUR",
          "122": "IN_FAVOUR",
          "123": "IN_FAVOUR",
          "255": "DID_NOT_VOTE",
          "211": "DID_NOT_VOTE",
          "179": "IN_FAVOUR",
          "202": "DID_NOT_VOTE",
          "203": "IN_FAVOUR",
          "104": "IN_FAVOUR",
          "149": "IN_FAVOUR",
          "107": "IN_FAVOUR",
          "108": "IN_FAVOUR"
        },
        "title": "Amendment A"
      }},
      "status": "FINISHED"
    },
    "3": {
      "date": "2020-08-08",
      "stage": "THIRD",
      "house": "COMMONS",
      "divisions": {"0": {
        "votes": {
          "171": "IN_FAVOUR",
          "161": "DID_NOT_VOTE",
          "151": "IN_FAVOUR",
          "174": "IN_FAVOUR",
          "241": "IN_FAVOUR",
          "120": "DID_NOT_VOTE",
          "164": "DID_NOT_VOTE",
          "198": "IN_FAVOUR",
          "253": "DID_NOT_VOTE",
          "122": "DID_NOT_VOTE",
          "123": "DID_NOT_VOTE",
          "255": "IN_FAVOUR",
          "211": "IN_FAVOUR",
          "179": "DID_NOT_VOTE",
          "202": "IN_FAVOUR",
          "203": "IN_FAVOUR",
          "104": "DID_NOT_VOTE",
          "149": "IN_FAVOUR",
          "107": "IN_FAVOUR",
          "108": "DID_NOT_VOTE"
        },
        "title": "3rd Reading"
      }},
      "status": "FINISHED"
    },
    "4": {
      "date": "2020-08-09",
      "stage": "FIRST",
      "house": "LORDS",
      "divisions": {},
      "status": "FINISHED"
    },
    "5": {
      "date": "2020-08-09",
      "stage": "SECOND",
      "house": "LORDS",
      "divisions": {"0": {
        "votes": {
          "154": "IN_FAVOUR",
          "199": "ABSTENTION",
          "167": "IN_FAVOUR",
          "156": "IN_FAVOUR",
          "168": "IN_FAVOUR",
          "169": "IN_FAVOUR",
          "125": "IN_FAVOUR",
          "159": "AGAINST",
          "139": "IN_FAVOUR",
          "181": "DID_NOT_VOTE",
          "175": "IN_FAVOUR"
        },
        "title": "2nd Reading"
      }},
      "status": "FINISHED"
    },
    "6": {
      "date": "2020-08-11",
      "stage": "SECOND",
      "house": "LORDS",
      "divisions": {"0": {
        "votes": {
          "181": "IN_FAVOUR",
          "175": "IN_FAVOUR",
          "110": "IN_FAVOUR",
          "154": "IN_FAVOUR",
          "199": "IN_FAVOUR",
          "133": "IN_FAVOUR",
          "167": "DID_NOT_VOTE",
          "156": "IN_FAVOUR",
          "168": "IN_FAVOUR",
          "125": "IN_FAVOUR",
          "159": "IN_FAVOUR",
          "116": "IN_FAVOUR",
          "139": "DID_NOT_VOTE"
        },
        "title": "2nd Reading"
      }},
      "status": "FINISHED"
    },
    "7": {
      "date": "2020-08-16",
      "stage": "REPORT",
      "house": "LORDS",
      "divisions": {
        "0": {
          "votes": {
            "181": "IN_FAVOUR",
            "175": "IN_FAVOUR",
            "110": "IN_FAVOUR",
            "154": "IN_FAVOUR",
            "231": "IN_FAVOUR",
            "199": "IN_FAVOUR",
            "167": "IN_FAVOUR",
            "156": "IN_FAVOUR",
            "168": "IN_FAVOUR",
            "169": "IN_FAVOUR",
            "125": "IN_FAVOUR",
            "159": "IN_FAVOUR",
            "139": "IN_FAVOUR"
          },
          "title": "Amendment A"
        },
        "1": {
          "votes": {
            "181": "IN_FAVOUR",
            "175": "IN_FAVOUR",
            "110": "IN_FAVOUR",
            "154": "IN_FAVOUR",
            "231": "DID_NOT_VOTE",
            "199": "IN_FAVOUR",
            "167": "AGAINST",
            "156": "AGAINST",
            "168": "AGAINST",
            "169": "ABSTENTION",
            "125": "AGAINST",
            "159": "IN_FAVOUR",
            "139": "IN_FAVOUR"
          },
          "title": "Amendment B"
        },
        "2": {
          "votes": {
            "181": "IN_FAVOUR",
            "175": "IN_FAVOUR",
            "110": "IN_FAVOUR",
            "154": "IN_FAVOUR",
            "231": "DID_NOT_VOTE",
            "199": "IN_FAVOUR",
            "167": "IN_FAVOUR",
            "156": "IN_FAVOUR",
            "168": "IN_FAVOUR",
            "169": "IN_FAVOUR",
            "125": "IN_FAVOUR",
            "159": "IN_FAVOUR",
            "139": "IN_FAVOUR"
          },
          "title": "Amendment C"
        },
        "3": {
          "votes": {
            "181": "IN_FAVOUR",
            "175": "IN_FAVOUR",
            "110": "IN_FAVOUR",
            "154": "ABSTENTION",
            "231": "DID_NOT_VOTE",
            "199": "IN_FAVOUR",
            "167": "IN_FAVOUR",
            "156": "IN_FAVOUR",
            "168": "AGAINST",
            "169": "ABSTENTION",
            "125": "IN_FAVOUR",
            "159": "IN_FAVOUR",
            "139": "IN_FAVOUR"
          },
          "title": "Amendment D"
        }
      },
      "status": "FINISHED"
    },
    "8": {
      "date": "2020-08-22",
      "stage": "THIRD",
      "house": "LORDS",
      "divisions": {"0": {
        "votes": {
          "181": "IN_FAVOUR",
          "175": "DID_NOT_VOTE",
          "110": "IN_FAVOUR",
          "154": "IN_FAVOUR",
          "231": "IN_FAVOUR",
          "199": "IN_FAVOUR",
          "133": "DID_NOT_VOTE",
          "167": "DID_NOT_VOTE",
          "156": "IN_FAVOUR",
          "135": "IN_FAVOUR",
          "125": "IN_FAVOUR",
          "159": "IN_FAVOUR",
          "139": "IN_FAVOUR"
        },
        "title": "3rd Reading"
      }},
      "status": "FINISHED"
    },
    "9": {
      "date": "2020-08-23",
      "stage": "FIRST",
      "house": "COMMONS",
      "divisions": {},
      "status": "FINISHED"
    },
    "10": {
      "date": "2020-08-23",
      "stage": "SECOND",
      "house": "COMMONS",
      "divisions": {"0": {
        "votes": {
          "190": "DID_NOT_VOTE",
          "182": "DID_NOT_VOTE",
          "171": "IN_FAVOUR",
          "161": "IN_FAVOUR",
          "151": "IN_FAVOUR",
          "174": "IN_FAVOUR",
          "241": "DID_NOT_VOTE",
          "120": "IN_FAVOUR",
          "164": "IN_FAVOUR",
          "198": "IN_FAVOUR",
          "253": "IN_FAVOUR",
          "123": "IN_FAVOUR",
          "211": "DID_NOT_VOTE",
          "179": "IN_FAVOUR",
          "203": "IN_FAVOUR",
          "104": "IN_FAVOUR",
          "149": "IN_FAVOUR",
          "107": "DID_NOT_VOTE",
          "108": "IN_FAVOUR"
        },
        "title": "2nd Reading"
      }},
      "status": "FINISHED"
    }
  },
  "id": "B039",
  "type": "BILL",
  "status": "ROYAL_ASSENT",
  "longName": "Anti Semitism Prevention Bill"
}