{
  "name": "Expansion of Powers (Foreign Affairs) Bill",
  "stages": {
    "0": {
      "date": "2020-07-07",
      "stage": "FIRST",
      "house": "COMMONS",
      "divisions": {},
      "status": "FINISHED"
    },
    "1": {
      "date": "2020-07-26",
      "stage": "SECOND",
      "house": "COMMONS",
      "divisions": {"0": {
        "votes": {
          "161": "ABSTENTION",
          "151": "AGAINST",
          "174": "AGAINST",
          "241": "DID_NOT_VOTE",
          "120": "AGAINST",
          "164": "AGAINST",
          "198": "AGAINST",
          "254": "AGAINST",
          "122": "AGAINST",
          "123": "AGAINST",
          "255": "DID_NOT_VOTE",
          "211": "DID_NOT_VOTE",
          "179": "AGAINST",
          "202": "AGAINST",
          "203": "AGAINST",
          "104": "AGAINST",
          "149": "AGAINST",
          "139": "AGAINST",
          "107": "AGAINST",
          "108": "AGAINST"
        },
        "title": "2nd Reading"
      }},
      "status": "FINISHED"
    }
  },
  "id": "B040",
  "type": "BILL",
  "status": "REJECTED",
  "longName": "Expansion of Powers (Foreign Affairs) Bill"
}