{
  "name": "National Park Expansion and Preservation Bill",
  "stages": {
    "0": {
      "date": "2020-07-07",
      "stage": "FIRST",
      "house": "COMMONS",
      "divisions": {},
      "status": "FINISHED"
    },
    "1": {
      "date": "2020-08-01",
      "stage": "SECOND",
      "house": "COMMONS",
      "divisions": {"0": {
        "votes": {
          "171": "IN_FAVOUR",
          "161": "IN_FAVOUR",
          "151": "IN_FAVOUR",
          "174": "IN_FAVOUR",
          "241": "IN_FAVOUR",
          "120": "IN_FAVOUR",
          "164": "IN_FAVOUR",
          "198": "IN_FAVOUR",
          "253": "IN_FAVOUR",
          "122": "IN_FAVOUR",
          "123": "IN_FAVOUR",
          "255": "AGAINST",
          "211": "IN_FAVOUR",
          "179": "DID_NOT_VOTE",
          "202": "IN_FAVOUR",
          "203": "AGAINST",
          "104": "AGAINST",
          "149": "IN_FAVOUR",
          "107": "IN_FAVOUR",
          "108": "IN_FAVOUR"
        },
        "title": "2nd Reading"
      }},
      "status": "FINISHED"
    },
    "2": {
      "date": "2020-08-15",
      "stage": "THIRD",
      "house": "COMMONS",
      "divisions": {"0": {
        "votes": {
          "190": "IN_FAVOUR",
          "182": "DID_NOT_VOTE",
          "171": "DID_NOT_VOTE",
          "161": "DID_NOT_VOTE",
          "151": "IN_FAVOUR",
          "174": "IN_FAVOUR",
          "241": "IN_FAVOUR",
          "120": "IN_FAVOUR",
          "164": "IN_FAVOUR",
          "198": "IN_FAVOUR",
          "253": "DID_NOT_VOTE",
          "123": "IN_FAVOUR",
          "255": "IN_FAVOUR",
          "211": "IN_FAVOUR",
          "179": "IN_FAVOUR",
          "203": "IN_FAVOUR",
          "104": "IN_FAVOUR",
          "149": "IN_FAVOUR",
          "107": "IN_FAVOUR",
          "108": "IN_FAVOUR"
        },
        "title": "3rd Reading"
      }},
      "status": "FINISHED"
    },
    "3": {
      "date": "2020-08-17",
      "stage": "FIRST",
      "house": "LORDS",
      "divisions": {},
      "status": "FINISHED"
    },
    "4": {
      "date": "2020-08-21",
      "stage": "SECOND",
      "house": "LORDS",
      "divisions": {"0": {
        "votes": {
          "110": "AGAINST",
          "154": "ABSTENTION",
          "199": "AGAINST",
          "133": "AGAINST",
          "167": "AGAINST",
          "156": "ABSTENTION",
          "135": "AGAINST",
          "125": "AGAINST",
          "159": "IN_FAVOUR",
          "139": "AGAINST",
          "181": "AGAINST",
          "175": "IN_FAVOUR"
        },
        "title": "2nd Reading"
      }},
      "status": "FINISHED"
    },
    "5": {
      "date": "2020-09-04",
      "stage": "REPORT",
      "house": "LORDS",
      "divisions": {"0": {
        "votes": {
          "110": "IN_FAVOUR",
          "154": "AGAINST",
          "199": "AGAINST",
          "133": "AGAINST",
          "167": "AGAINST",
          "156": "AGAINST",
          "135": "DID_NOT_VOTE",
          "125": "AGAINST",
          "159": "AGAINST",
          "139": "AGAINST",
          "181": "IN_FAVOUR",
          "175": "AGAINST"
        },
        "title": "Amendment B"
      }},
      "status": "FINISHED"
    },
    "6": {
      "date": "2020-09-05",
      "stage": "THIRD",
      "house": "LORDS",
      "divisions": {},
      "status": "FINISHED"
    },
    "7": {
      "date": "2020-09-06",
      "stage": "FIRST",
      "house": "COMMONS",
      "divisions": {},
      "status": "FINISHED"
    },
    "8": {
      "date": "2020-09-18",
      "stage": "SECOND",
      "house": "COMMONS",
      "divisions": {"0": {
        "votes": {
          "190": "DID_NOT_VOTE",
          "182": "IN_FAVOUR",
          "171": "IN_FAVOUR",
          "161": "IN_FAVOUR",
          "151": "IN_FAVOUR",
          "174": "IN_FAVOUR",
          "252": "IN_FAVOUR",
          "241": "DID_NOT_VOTE",
          "120": "IN_FAVOUR",
          "164": "IN_FAVOUR",
          "198": "IN_FAVOUR",
          "188": "IN_FAVOUR",
          "123": "IN_FAVOUR",
          "179": "IN_FAVOUR",
          "257": "DID_NOT_VOTE",
          "203": "IN_FAVOUR",
          "159": "IN_FAVOUR",
          "149": "IN_FAVOUR",
          "107": "IN_FAVOUR",
          "108": "IN_FAVOUR"
        },
        "title": "2nd Reading"
      }},
      "status": "FINISHED"
    },
    "9": {
      "date": "2020-09-27",
      "stage": "THIRD",
      "house": "COMMONS",
      "divisions": {"0": {
        "votes": {
          "182": "DID_NOT_VOTE",
          "171": "IN_FAVOUR",
          "161": "IN_FAVOUR",
          "151": "IN_FAVOUR",
          "174": "IN_FAVOUR",
          "252": "IN_FAVOUR",
          "153": "IN_FAVOUR",
          "120": "IN_FAVOUR",
          "164": "IN_FAVOUR",
          "198": "IN_FAVOUR",
          "188": "IN_FAVOUR",
          "123": "IN_FAVOUR",
          "179": "DID_NOT_VOTE",
          "257": "IN_FAVOUR",
          "203": "IN_FAVOUR",
          "159": "IN_FAVOUR",
          "149": "IN_FAVOUR",
          "107": "IN_FAVOUR",
          "108": "DID_NOT_VOTE"
        },
        "title": "3rd Reading"
      }},
      "status": "FINISHED"
    },
    "10": {
      "date": "2020-09-29",
      "stage": "ROYAL_ASSENT",
      "house": "OTHER",
      "divisions": {}
    }
  },
  "id": "B042",
  "type": "BILL",
  "status": "ROYAL_ASSENT",
  "longName": "National Park Expansion and Preservation Bill"
}