{
  "name": "Automatic Electoral Registration Bill",
  "stages": {
    "0": {
      "date": "2021-02-05",
      "stage": "FIRST",
      "house": "COMMONS",
      "divisions": {},
      "status": "FINISHED"
    },
    "1": {
      "date": "2021-02-12",
      "stage": "SECOND",
      "house": "COMMONS",
      "divisions": {"0": {
        "votes": {
          "191": "AGAINST",
          "171": "DID_NOT_VOTE",
          "260": "DID_NOT_VOTE",
          "151": "IN_FAVOUR",
          "153": "DID_NOT_VOTE",
          "198": "IN_FAVOUR",
          "199": "IN_FAVOUR",
          "123": "IN_FAVOUR",
          "135": "IN_FAVOUR",
          "126": "AGAINST",
          "148": "AGAINST",
          "115": "IN_FAVOUR",
          "149": "IN_FAVOUR",
          "259": "DID_NOT_VOTE",
          "107": "IN_FAVOUR"
        },
        "title": "2nd Reading"
      }},
      "status": "FINISHED"
    },
    "2": {
      "date": "2021-02-20",
      "stage": "THIRD",
      "house": "COMMONS",
      "divisions": {"0": {
        "votes": {
          "191": "DID_NOT_VOTE",
          "171": "IN_FAVOUR",
          "260": "IN_FAVOUR",
          "151": "IN_FAVOUR",
          "153": "IN_FAVOUR",
          "198": "DID_NOT_VOTE",
          "199": "DID_NOT_VOTE",
          "123": "IN_FAVOUR",
          "114": "IN_FAVOUR",
          "126": "IN_FAVOUR",
          "115": "IN_FAVOUR",
          "149": "IN_FAVOUR",
          "107": "IN_FAVOUR"
        },
        "title": "3rd Reading"
      }},
      "status": "FINISHED"
    },
    "3": {
      "date": "2021-02-26",
      "stage": "FIRST",
      "house": "LORDS",
      "divisions": {},
      "status": "FINISHED"
    },
    "4": {
      "date": "2021-02-26",
      "stage": "SECOND",
      "house": "LORDS",
      "divisions": {"0": {
        "votes": {
          "264": "IN_FAVOUR",
          "232": "DID_NOT_VOTE",
          "156": "IN_FAVOUR",
          "169": "IN_FAVOUR",
          "125": "IN_FAVOUR",
          "203": "IN_FAVOUR",
          "116": "IN_FAVOUR",
          "181": "DID_NOT_VOTE",
          "174": "ABSTENTION",
          "175": "DID_NOT_VOTE"
        },
        "title": "2nd Reading"
      }},
      "status": "FINISHED"
    },
    "5": {
      "date": "2021-03-05",
      "stage": "THIRD",
      "house": "LORDS",
      "divisions": {"0": {
        "votes": {
          "264": "IN_FAVOUR",
          "156": "DID_NOT_VOTE",
          "169": "IN_FAVOUR",
          "125": "IN_FAVOUR",
          "203": "IN_FAVOUR",
          "116": "IN_FAVOUR",
          "181": "DID_NOT_VOTE",
          "183": "IN_FAVOUR",
          "174": "IN_FAVOUR",
          "175": "DID_NOT_VOTE"
        },
        "title": "3rd Reading"
      }},
      "status": "FINISHED"
    },
    "6": {
      "date": "2021-03-08",
      "stage": "ROYAL_ASSENT",
      "house": "OTHER",
      "divisions": {}
    }
  },
  "id": "B059",
  "type": "BILL",
  "status": "NOT_YET_IN_FORCE",
  "longName": "Automatic Electoral Registration Bill"
}