{
  "name": "Drug Treatment and Addiction Bill",
  "stages": {
    "0": {
      "date": "2021-05-26",
      "stage": "FIRST",
      "house": "COMMONS",
      "divisions": {},
      "status": "FINISHED"
    },
    "1": {
      "date": "2021-05-29",
      "stage": "SECOND",
      "house": "COMMONS",
      "divisions": {"0": {
        "votes": {
          "191": "IN_FAVOUR",
          "171": "DID_NOT_VOTE",
          "163": "DID_NOT_VOTE",
          "153": "IN_FAVOUR",
          "198": "IN_FAVOUR",
          "111": "IN_FAVOUR",
          "199": "IN_FAVOUR",
          "177": "IN_FAVOUR",
          "123": "IN_FAVOUR",
          "124": "IN_FAVOUR",
          "125": "IN_FAVOUR",
          "114": "IN_FAVOUR",
          "115": "DID_NOT_VOTE",
          "105": "IN_FAVOUR",
          "149": "IN_FAVOUR"
        },
        "title": "2nd Reading"
      }},
      "status": "FINISHED"
    },
    "2": {
      "date": "2021-06-05",
      "stage": "THIRD",
      "house": "COMMONS",
      "divisions": {"0": {
        "votes": {
          "191": "IN_FAVOUR",
          "163": "DID_NOT_VOTE",
          "153": "IN_FAVOUR",
          "198": "IN_FAVOUR",
          "111": "IN_FAVOUR",
          "199": "IN_FAVOUR",
          "177": "IN_FAVOUR",
          "123": "IN_FAVOUR",
          "124": "IN_FAVOUR",
          "125": "IN_FAVOUR",
          "114": "IN_FAVOUR",
          "115": "DID_NOT_VOTE",
          "105": "IN_FAVOUR",
          "149": "IN_FAVOUR"
        },
        "title": "3rd Reading"
      }},
      "status": "FINISHED"
    },
    "3": {
      "date": "2021-06-06",
      "stage": "FIRST",
      "house": "LORDS",
      "divisions": {},
      "status": "FINISHED"
    },
    "4": {
      "date": "2021-06-06",
      "stage": "SECOND",
      "house": "LORDS",
      "divisions": {"0": {
        "votes": {
          "156": "IN_FAVOUR",
          "102": "IN_FAVOUR",
          "169": "IN_FAVOUR",
          "203": "IN_FAVOUR",
          "206": "DID_NOT_VOTE",
          "192": "IN_FAVOUR",
          "174": "DID_NOT_VOTE",
          "263": "DID_NOT_VOTE",
          "120": "IN_FAVOUR"
        },
        "title": "2nd Reading"
      }},
      "status": "FINISHED"
    },
    "5": {
      "date": "2021-07-11",
      "stage": "THIRD",
      "house": "LORDS",
      "divisions": {"0": {
        "votes": {
          "154": "IN_FAVOUR",
          "110": "IN_FAVOUR",
          "156": "DID_NOT_VOTE",
          "118": "IN_FAVOUR",
          "172": "IN_FAVOUR",
          "174": "AGAINST",
          "263": "DID_NOT_VOTE"
        },
        "title": "3rd Reading"
      }},
      "status": "FINISHED"
    },
    "6": {
      "date": "2021-07-12",
      "stage": "ROYAL_ASSENT",
      "house": "OTHER",
      "divisions": {}
    }
  },
  "id": "B080",
  "type": "BILL",
  "status": "ROYAL_ASSENT",
  "longName": "Drug Treatment and Addiction Bill"
}