{
  "name": "Ballot Initiative Bill",
  "stages": {
    "0": {
      "date": "2021-08-02",
      "stage": "FIRST",
      "house": "COMMONS",
      "divisions": {},
      "status": "FINISHED"
    },
    "1": {
      "date": "2021-08-20",
      "stage": "SECOND",
      "house": "COMMONS",
      "divisions": {"0": {
        "votes": {
          "172": "IN_FAVOUR",
          "261": "DID_NOT_VOTE",
          "163": "IN_FAVOUR",
          "120": "AGAINST",
          "198": "IN_FAVOUR",
          "199": "IN_FAVOUR",
          "177": "IN_FAVOUR",
          "111": "DID_NOT_VOTE",
          "135": "IN_FAVOUR",
          "125": "DID_NOT_VOTE",
          "169": "IN_FAVOUR",
          "203": "IN_FAVOUR",
          "149": "IN_FAVOUR",
          "105": "IN_FAVOUR",
          "206": "IN_FAVOUR"
        },
        "title": "2nd Reading"
      }},
      "status": "FINISHED"
    }
  },
  "id": "B089",
  "type": "BILL",
  "status": "REPORT",
  "longName": "Ballot Initiative Bill"
}