{
  "name": "Taiwan Support (Amendment) Bill",
  "stages": {
    "0": {
      "date": "2020-07-08",
      "stage": "FIRST",
      "house": "LORDS",
      "divisions": {},
      "status": "FINISHED"
    },
    "1": {
      "date": "2020-07-12",
      "stage": "SECOND",
      "house": "LORDS",
      "divisions": {"0": {
        "votes": {
          "110": "IN_FAVOUR",
          "199": "IN_FAVOUR",
          "167": "IN_FAVOUR",
          "156": "IN_FAVOUR",
          "200": "IN_FAVOUR",
          "169": "IN_FAVOUR",
          "125": "ABSTENTION",
          "129": "AGAINST",
          "175": "IN_FAVOUR",
          "230": "IN_FAVOUR"
        },
        "title": "2nd Reading"
      }},
      "status": "FINISHED"
    },
    "2": {
      "date": "2020-07-24",
      "stage": "REPORT",
      "house": "LORDS",
      "divisions": {"0": {
        "votes": {
          "110": "IN_FAVOUR",
          "154": "IN_FAVOUR",
          "199": "IN_FAVOUR",
          "167": "DID_NOT_VOTE",
          "156": "IN_FAVOUR",
          "168": "IN_FAVOUR",
          "125": "IN_FAVOUR",
          "175": "DID_NOT_VOTE",
          "230": "IN_FAVOUR"
        },
        "title": "Amendment A"
      }},
      "status": "FINISHED"
    },
    "3": {
      "date": "2020-07-26",
      "stage": "THIRD",
      "house": "LORDS",
      "divisions": {"0": {
        "votes": {
          "110": "IN_FAVOUR",
          "154": "IN_FAVOUR",
          "199": "IN_FAVOUR",
          "167": "IN_FAVOUR",
          "156": "IN_FAVOUR",
          "168": "IN_FAVOUR",
          "125": "IN_FAVOUR",
          "175": "IN_FAVOUR",
          "230": "IN_FAVOUR"
        },
        "title": "3rd Reading"
      }},
      "status": "FINISHED"
    },
    "4": {
      "date": "2020-07-27",
      "stage": "FIRST",
      "house": "COMMONS",
      "divisions": {},
      "status": "FINISHED"
    },
    "5": {
      "date": "2020-08-09",
      "stage": "SECOND",
      "house": "COMMONS",
      "divisions": {"0": {
        "votes": {
          "171": "IN_FAVOUR",
          "161": "IN_FAVOUR",
          "151": "IN_FAVOUR",
          "174": "IN_FAVOUR",
          "241": "IN_FAVOUR",
          "120": "IN_FAVOUR",
          "164": "IN_FAVOUR",
          "198": "IN_FAVOUR",
          "253": "DID_NOT_VOTE",
          "122": "IN_FAVOUR",
          "123": "IN_FAVOUR",
          "255": "IN_FAVOUR",
          "211": "IN_FAVOUR",
          "179": "IN_FAVOUR",
          "202": "IN_FAVOUR",
          "203": "IN_FAVOUR",
          "104": "AGAINST",
          "149": "IN_FAVOUR",
          "107": "IN_FAVOUR",
          "108": "DID_NOT_VOTE"
        },
        "title": "2nd Reading"
      }},
      "status": "FINISHED"
    },
    "6": {
      "date": "2020-08-30",
      "stage": "THIRD",
      "house": "COMMONS",
      "divisions": {"0": {
        "votes": {
          "190": "DID_NOT_VOTE",
          "182": "IN_FAVOUR",
          "171": "IN_FAVOUR",
          "161": "DID_NOT_VOTE",
          "151": "IN_FAVOUR",
          "174": "IN_FAVOUR",
          "241": "DID_NOT_VOTE",
          "120": "IN_FAVOUR",
          "164": "IN_FAVOUR",
          "198": "IN_FAVOUR",
          "123": "IN_FAVOUR",
          "211": "IN_FAVOUR",
          "179": "DID_NOT_VOTE",
          "203": "IN_FAVOUR",
          "104": "IN_FAVOUR",
          "149": "IN_FAVOUR",
          "107": "IN_FAVOUR",
          "108": "IN_FAVOUR"
        },
        "title": "3rd Reading"
      }},
      "status": "FINISHED"
    },
    "7": {
      "date": "2020-08-31",
      "stage": "ROYAL_ASSENT",
      "house": "OTHER",
      "divisions": {}
    }
  },
  "id": "LB009",
  "type": "BILL",
  "status": "ROYAL_ASSENT",
  "longName": "Taiwan Support (Amendment) Bill"
}