{
  "name": "Military Cyber Allocation Lengths Bill",
  "stages": {
    "0": {
      "date": "2020-08-05",
      "stage": "FIRST",
      "house": "LORDS",
      "divisions": {},
      "status": "FINISHED"
    },
    "1": {
      "date": "2020-08-07",
      "stage": "SECOND",
      "house": "LORDS",
      "divisions": {"0": {
        "votes": {
          "110": "ABSTENTION",
          "154": "IN_FAVOUR",
          "199": "IN_FAVOUR",
          "167": "DID_NOT_VOTE",
          "156": "IN_FAVOUR",
          "168": "IN_FAVOUR",
          "125": "IN_FAVOUR",
          "159": "AGAINST",
          "139": "IN_FAVOUR",
          "175": "IN_FAVOUR"
        },
        "title": "2nd Reading"
      }},
      "status": "FINISHED"
    },
    "2": {
      "date": "2020-08-13",
      "stage": "SECOND",
      "house": "COMMONS",
      "divisions": {"0": {
        "votes": {
          "190": "DID_NOT_VOTE",
          "182": "IN_FAVOUR",
          "171": "IN_FAVOUR",
          "161": "DID_NOT_VOTE",
          "151": "IN_FAVOUR",
          "174": "ABSTENTION",
          "252": "DID_NOT_VOTE",
          "241": "DID_NOT_VOTE",
          "120": "DID_NOT_VOTE",
          "164": "AGAINST",
          "198": "IN_FAVOUR",
          "188": "DID_NOT_VOTE",
          "123": "IN_FAVOUR",
          "211": "DID_NOT_VOTE",
          "179": "IN_FAVOUR",
          "203": "IN_FAVOUR",
          "104": "AGAINST",
          "149": "DID_NOT_VOTE",
          "107": "IN_FAVOUR",
          "108": "IN_FAVOUR"
        },
        "title": "2nd Reading"
      }},
      "status": "FINISHED"
    },
    "3": {
      "date": "2020-08-23",
      "stage": "THIRD",
      "house": "LORDS",
      "divisions": {"0": {
        "votes": {
          "181": "DID_NOT_VOTE",
          "175": "DID_NOT_VOTE",
          "110": "ABSTENTION",
          "154": "IN_FAVOUR",
          "231": "DID_NOT_VOTE",
          "199": "IN_FAVOUR",
          "133": "IN_FAVOUR",
          "167": "IN_FAVOUR",
          "156": "IN_FAVOUR",
          "135": "IN_FAVOUR",
          "125": "IN_FAVOUR",
          "159": "IN_FAVOUR",
          "139": "IN_FAVOUR"
        },
        "title": "3rd Reading"
      }},
      "status": "FINISHED"
    },
    "4": {
      "date": "2020-08-24",
      "stage": "FIRST",
      "house": "COMMONS",
      "divisions": {},
      "status": "FINISHED"
    },
    "5": {
      "date": "2020-09-27",
      "stage": "THIRD",
      "house": "COMMONS",
      "divisions": {"0": {
        "votes": {
          "182": "IN_FAVOUR",
          "171": "IN_FAVOUR",
          "161": "ABSTENTION",
          "151": "IN_FAVOUR",
          "174": "IN_FAVOUR",
          "252": "IN_FAVOUR",
          "153": "IN_FAVOUR",
          "120": "IN_FAVOUR",
          "164": "ABSTENTION",
          "198": "IN_FAVOUR",
          "188": "IN_FAVOUR",
          "123": "IN_FAVOUR",
          "179": "DID_NOT_VOTE",
          "257": "IN_FAVOUR",
          "203": "IN_FAVOUR",
          "159": "IN_FAVOUR",
          "149": "IN_FAVOUR",
          "107": "IN_FAVOUR",
          "108": "DID_NOT_VOTE"
        },
        "title": "3rd Reading"
      }},
      "status": "FINISHED"
    },
    "6": {
      "date": "2020-09-29",
      "stage": "ROYAL_ASSENT",
      "house": "OTHER",
      "divisions": {}
    }
  },
  "id": "LB013",
  "type": "BILL",
  "status": "ROYAL_ASSENT",
  "longName": "Military Cyber Allocation Lengths Bill"
}