{
  "name": "Motion to Express Support for the Future of the British Rail Network",
  "stages": {
    "0": {
      "date": "2019-03-30",
      "stage": "SCHEDULED",
      "house": "LORDS",
      "divisions": {},
      "status": "FINISHED"
    },
    "1": {
      "date": "2019-03-30",
      "stage": "READING",
      "house": "LORDS",
      "divisions": {"0": {
        "votes": {
          "220": "DID_NOT_VOTE",
          "132": "IN_FAVOUR",
          "159": "IN_FAVOUR",
          "216": "IN_FAVOUR",
          "107": "IN_FAVOUR",
          "217": "IN_FAVOUR",
          "218": "IN_FAVOUR",
          "219": "IN_FAVOUR",
          "197": "IN_FAVOUR",
          "186": "IN_FAVOUR"
        },
        "title": "Reading"
      }},
      "status": "FINISHED"
    },
    "2": {
      "date": "2019-03-31",
      "stage": "PASSED",
      "house": "LORDS",
      "divisions": {},
      "status": "FINISHED"
    }
  },
  "id": "LM002",
  "type": "MOTION",
  "status": "UNKNOWN"
}