{
  "name": "Motion to expel the Bishop of Westminster from the Lords",
  "stages": {
    "0": {
      "date": "2020-07-11",
      "stage": "SCHEDULED",
      "house": "LORDS",
      "divisions": {},
      "status": "FINISHED"
    },
    "1": {
      "date": "2020-07-19",
      "stage": "READING",
      "house": "LORDS",
      "divisions": {"0": {
        "votes": {
          "110": "AGAINST",
          "154": "ABSTENTION",
          "199": "IN_FAVOUR",
          "167": "ABSTENTION",
          "156": "ABSTENTION",
          "168": "IN_FAVOUR",
          "125": "AGAINST",
          "129": "AGAINST",
          "175": "IN_FAVOUR",
          "230": "IN_FAVOUR"
        },
        "title": "Reading"
      }},
      "status": "FINISHED"
    },
    "2": {
      "date": "2020-07-20",
      "stage": "PASSED",
      "house": "LORDS",
      "divisions": {},
      "status": "FINISHED"
    }
  },
  "id": "LM012",
  "type": "MOTION",
  "status": "UNKNOWN"
}