{
  "name": "Motion to condemn the United States government and police forces",
  "stages": {
    "0": {
      "date": "2020-07-21",
      "stage": "SCHEDULED",
      "house": "LORDS",
      "divisions": {},
      "status": "FINISHED"
    },
    "1": {
      "date": "2020-07-25",
      "stage": "READING",
      "house": "LORDS",
      "divisions": {"0": {
        "votes": {
          "110": "IN_FAVOUR",
          "154": "IN_FAVOUR",
          "199": "ABSTENTION",
          "167": "IN_FAVOUR",
          "156": "ABSTENTION",
          "168": "IN_FAVOUR",
          "125": "ABSTENTION",
          "175": "AGAINST",
          "230": "IN_FAVOUR"
        },
        "title": "Reading"
      }},
      "status": "FINISHED"
    },
    "2": {
      "date": "2020-07-26",
      "stage": "PASSED",
      "house": "LORDS",
      "divisions": {},
      "status": "FINISHED"
    }
  },
  "id": "LM016",
  "type": "MOTION",
  "status": "UNKNOWN"
}