{
  "name": "Motion to recognise the 2014 Crimean status referendum",
  "stages": {
    "0": {
      "date": "2021-07-21",
      "stage": "SCHEDULED",
      "house": "LORDS",
      "divisions": {},
      "status": "FINISHED"
    },
    "1": {
      "date": "2021-07-30",
      "stage": "READING",
      "house": "LORDS",
      "divisions": {"0": {
        "votes": {
          "143": "AGAINST",
          "154": "AGAINST",
          "110": "AGAINST",
          "156": "AGAINST",
          "172": "DID_NOT_VOTE",
          "174": "ABSTENTION",
          "263": "AGAINST"
        },
        "title": "Reading"
      }},
      "status": "FINISHED"
    }
  },
  "id": "LM027",
  "type": "MOTION",
  "status": "REJECTED"
}