{
  "name": "Motion to Establish a Constitutional Convention",
  "stages": {
    "0": {
      "date": "2019-04-28",
      "stage": "SCHEDULED",
      "house": "COMMONS",
      "divisions": {},
      "status": "FINISHED"
    },
    "1": {
      "date": "2019-05-03",
      "stage": "READING",
      "house": "COMMONS",
      "divisions": {"0": {
        "votes": {
          "160": "IN_FAVOUR",
          "194": "ABSTENTION",
          "173": "AGAINST",
          "174": "IN_FAVOUR",
          "130": "DID_NOT_VOTE",
          "196": "IN_FAVOUR",
          "175": "IN_FAVOUR",
          "142": "ABSTENTION",
          "100": "IN_FAVOUR",
          "133": "AGAINST",
          "166": "DID_NOT_VOTE",
          "145": "IN_FAVOUR",
          "112": "ABSTENTION",
          "113": "ABSTENTION",
          "169": "IN_FAVOUR",
          "147": "AGAINST",
          "235": "IN_FAVOUR",
          "137": "IN_FAVOUR",
          "207": "IN_FAVOUR",
          "109": "IN_FAVOUR"
        },
        "title": "Reading"
      }},
      "status": "FINISHED"
    },
    "2": {
      "date": "2019-05-04",
      "stage": "PASSED",
      "house": "COMMONS",
      "divisions": {},
      "status": "FINISHED"
    }
  },
  "id": "M009",
  "type": "MOTION",
  "status": "UNKNOWN"
}