{
  "name": "Tiananmen Square Remembrance Motion",
  "stages": {
    "0": {
      "date": "2019-06-03",
      "stage": "SCHEDULED",
      "house": "COMMONS",
      "divisions": {},
      "status": "FINISHED"
    },
    "1": {
      "date": "2019-06-03",
      "stage": "READING",
      "house": "COMMONS",
      "divisions": {"0": {
        "votes": {
          "160": "IN_FAVOUR",
          "194": "IN_FAVOUR",
          "174": "IN_FAVOUR",
          "185": "IN_FAVOUR",
          "196": "IN_FAVOUR",
          "175": "IN_FAVOUR",
          "142": "IN_FAVOUR",
          "100": "IN_FAVOUR",
          "133": "IN_FAVOUR",
          "166": "IN_FAVOUR",
          "145": "IN_FAVOUR",
          "112": "IN_FAVOUR",
          "169": "IN_FAVOUR",
          "147": "IN_FAVOUR",
          "235": "IN_FAVOUR",
          "127": "DID_NOT_VOTE",
          "117": "IN_FAVOUR",
          "207": "IN_FAVOUR",
          "109": "IN_FAVOUR"
        },
        "title": "Reading"
      }},
      "status": "FINISHED"
    },
    "2": {
      "date": "2019-06-04",
      "stage": "PASSED",
      "house": "COMMONS",
      "divisions": {},
      "status": "FINISHED"
    }
  },
  "id": "M015",
  "type": "MOTION",
  "status": "UNKNOWN"
}