{
  "name": "Motion to Condemn the Belarusian Government",
  "stages": {
    "0": {
      "date": "2020-08-13",
      "stage": "SCHEDULED",
      "house": "COMMONS",
      "divisions": {},
      "status": "FINISHED"
    },
    "1": {
      "date": "2020-08-21",
      "stage": "READING",
      "house": "COMMONS",
      "divisions": {"0": {
        "votes": {
          "190": "IN_FAVOUR",
          "182": "IN_FAVOUR",
          "171": "IN_FAVOUR",
          "161": "DID_NOT_VOTE",
          "151": "IN_FAVOUR",
          "174": "IN_FAVOUR",
          "241": "DID_NOT_VOTE",
          "120": "IN_FAVOUR",
          "164": "IN_FAVOUR",
          "198": "IN_FAVOUR",
          "253": "IN_FAVOUR",
          "123": "IN_FAVOUR",
          "211": "IN_FAVOUR",
          "179": "IN_FAVOUR",
          "203": "IN_FAVOUR",
          "104": "IN_FAVOUR",
          "149": "IN_FAVOUR",
          "107": "IN_FAVOUR",
          "108": "IN_FAVOUR"
        },
        "title": "Reading"
      }},
      "status": "FINISHED"
    },
    "2": {
      "date": "2020-08-22",
      "stage": "PASSED",
      "house": "COMMONS",
      "divisions": {},
      "status": "FINISHED"
    }
  },
  "id": "M044",
  "type": "MOTION",
  "status": "UNKNOWN"
}