{
  "name": "Motion to Honour the Reverend Wilbert Awdry",
  "stages": {
    "0": {
      "date": "2020-08-20",
      "stage": "SCHEDULED",
      "house": "COMMONS",
      "divisions": {},
      "status": "FINISHED"
    },
    "1": {
      "date": "2020-08-23",
      "stage": "READING",
      "house": "COMMONS",
      "divisions": {"0": {
        "votes": {
          "190": "DID_NOT_VOTE",
          "182": "IN_FAVOUR",
          "171": "AGAINST",
          "161": "ABSTENTION",
          "151": "ABSTENTION",
          "174": "IN_FAVOUR",
          "241": "DID_NOT_VOTE",
          "120": "IN_FAVOUR",
          "164": "AGAINST",
          "198": "IN_FAVOUR",
          "253": "AGAINST",
          "123": "IN_FAVOUR",
          "211": "IN_FAVOUR",
          "179": "DID_NOT_VOTE",
          "203": "IN_FAVOUR",
          "104": "IN_FAVOUR",
          "149": "AGAINST",
          "107": "IN_FAVOUR",
          "108": "ABSTENTION"
        },
        "title": "Reading"
      }},
      "status": "FINISHED"
    },
    "2": {
      "date": "2020-08-24",
      "stage": "PASSED",
      "house": "COMMONS",
      "divisions": {},
      "status": "FINISHED"
    }
  },
  "id": "M046",
  "type": "MOTION",
  "status": "UNKNOWN"
}