{
  "name": "Motion to Condemn Anti-Semitism in British Universities",
  "stages": {
    "0": {
      "date": "2021-02-16",
      "stage": "SCHEDULED",
      "house": "COMMONS",
      "divisions": {},
      "status": "FINISHED"
    },
    "1": {
      "date": "2021-02-19",
      "stage": "READING",
      "house": "COMMONS",
      "divisions": {"0": {
        "votes": {
          "198": "IN_FAVOUR",
          "199": "IN_FAVOUR",
          "123": "IN_FAVOUR",
          "126": "DID_NOT_VOTE",
          "115": "DID_NOT_VOTE",
          "149": "IN_FAVOUR",
          "107": "IN_FAVOUR",
          "191": "IN_FAVOUR",
          "171": "IN_FAVOUR",
          "260": "DID_NOT_VOTE",
          "151": "IN_FAVOUR",
          "153": "DID_NOT_VOTE"
        },
        "title": "Reading"
      }},
      "status": "FINISHED"
    },
    "2": {
      "date": "2021-02-20",
      "stage": "PASSED",
      "house": "COMMONS",
      "divisions": {},
      "status": "FINISHED"
    }
  },
  "id": "M055",
  "type": "MOTION",
  "status": "UNKNOWN"
}