{
  "name": "Motion of no confidence",
  "stages": {
    "0": {
      "date": "2021-08-17",
      "stage": "SCHEDULED",
      "house": "COMMONS",
      "divisions": {},
      "status": "FINISHED"
    },
    "1": {
      "date": "2021-08-20",
      "stage": "READING",
      "house": "COMMONS",
      "divisions": {"0": {
        "votes": {
          "172": "IN_FAVOUR",
          "261": "DID_NOT_VOTE",
          "163": "AGAINST",
          "120": "AGAINST",
          "198": "AGAINST",
          "199": "AGAINST",
          "177": "AGAINST",
          "111": "AGAINST",
          "135": "ABSTENTION",
          "125": "DID_NOT_VOTE",
          "169": "IN_FAVOUR",
          "203": "AGAINST",
          "149": "AGAINST",
          "105": "IN_FAVOUR",
          "206": "ABSTENTION"
        },
        "title": "Reading"
      }},
      "status": "FINISHED"
    }
  },
  "id": "M068",
  "type": "MOTION",
  "status": "REJECTED"
}