{
  "name": "Motion of No Confidence",
  "stages": {
    "0": {
      "date": "2021-09-17",
      "stage": "READING",
      "house": "COMMONS",
      "divisions": {"0": {
        "votes": {
          "193": "IN_FAVOUR",
          "260": "IN_FAVOUR",
          "172": "ABSTENTION",
          "261": "IN_FAVOUR",
          "163": "IN_FAVOUR",
          "262": "AGAINST",
          "120": "IN_FAVOUR",
          "198": "IN_FAVOUR",
          "199": "IN_FAVOUR",
          "177": "IN_FAVOUR",
          "101": "IN_FAVOUR",
          "189": "IN_FAVOUR",
          "135": "IN_FAVOUR",
          "203": "IN_FAVOUR",
          "105": "AGAINST"
        },
        "title": "Reading"
      }},
      "status": "FINISHED"
    },
    "1": {
      "date": "2021-09-18",
      "stage": "SCHEDULED",
      "house": "COMMONS",
      "divisions": {},
      "status": "FINISHED"
    },
    "2": {
      "date": "2021-09-18",
      "stage": "PASSED",
      "house": "COMMONS",
      "divisions": {},
      "status": "FINISHED"
    }
  },
  "id": "M072",
  "type": "MOTION",
  "status": "UNKNOWN"
}