{
  "name": "Motion of No Confidence",
  "stages": {
    "0": {
      "date": "2021-10-08",
      "stage": "SCHEDULED",
      "house": "COMMONS",
      "divisions": {},
      "status": "FINISHED"
    },
    "1": {
      "date": "2021-10-08",
      "stage": "READING",
      "house": "COMMONS",
      "divisions": {"0": {
        "votes": {
          "193": "AGAINST",
          "260": "DID_NOT_VOTE",
          "172": "IN_FAVOUR",
          "261": "AGAINST",
          "163": "AGAINST",
          "120": "AGAINST",
          "198": "AGAINST",
          "199": "AGAINST",
          "177": "AGAINST",
          "101": "AGAINST",
          "189": "AGAINST",
          "135": "AGAINST",
          "169": "AGAINST",
          "203": "AGAINST",
          "105": "IN_FAVOUR"
        },
        "title": "Reading"
      }},
      "status": "FINISHED"
    }
  },
  "id": "M075",
  "type": "MOTION",
  "status": "REJECTED"
}