{
  "name": "Motion to confirm the effect of the Statute forbidding Bearing of Armour of 1313",
  "stages": {"0": {
    "date": "2021-10-15",
    "stage": "SCHEDULED",
    "house": "COMMONS",
    "divisions": {},
    "status": "FINISHED"
  }},
  "id": "M078",
  "type": "MOTION",
  "status": "UNKNOWN"
}