{
  "name": "General Election IV",
  "date": "2021-01-03",
  "registeredVoters": 52012797,
  "results": "795347477813133313",
  "previousElection": "July 2020 By-Election",
  "nextElection": "General Election V",
  "seats": 15,
  "national": {
    "csd": {
      "leader": "George Vere",
      "votes": 15432197,
      "seats": 5
    },
    "lab":  {
      "leader": "Gorban Smiljić",
      "votes": 8774344,
      "seats": 3
    },
    "con":  {
      "leader": "Elliot Bouchard",
      "votes": 11705239,
      "seats": 3
    },
    "lib": {
      "leader": "Charles Gladstone",
      "votes": 15344460,
      "seats": 4
    },
    "gaia": {
      "leader": "Amber Anderson",
      "votes": 761949,
      "seats": 0
    }
  },
  "constituencies": {
    "scotland": {
      "Colin Ray Jackson": 1394409,
      "Michal Delvoski": 1365192
    },
    "northern-ireland": {
      "Charles A. Gladstone": 509788,
      "Theobald Wolfe Tone": 289246
    },
    "north": {
        "Gorban Smiljić": 5422133,
        "Xanthe Orpheus Florence": 1885377,
        "Paul John": 1091248,
        "Kyng": 245627
    },
    "midlands": {
      "Jacob Evans": 3409799,
      "Alastair Davenport": 2695471,
      "Gregory Glenn": 1704873,
      "Amber Anderson": 723261
    },
    "wales": {
      "Llywelyn ap Iorwerth": 1609550,
      "Owen Page": 382499,
      "Alexander Helios": 261155
    },
    "london": {
      "Elliot Bouchard": 2222327,
      "Tim Stamper": 1327312,
      "Eugen Thomas": 93145,
      "Ryan Clarke": 87396
    },
    "south": {
      "Alex Lambton": 4586669,
      "Dominik Katopodis": 2045846,
      "Valdemar Daae": 706004,
      "David Doughty": 563589
    }
  }
}