{
  "img": "https://upload.wikimedia.org/wikipedia/commons/6/6d/Official_portrait_of_Gillian_Keegan_MP.jpg",
  "name": "Stephanie Aldershot",
  "id": 101,
  "user": "191971692619235328",
  "party": {
    "2021-08-26T00:00:00": 1,
    "default": 0
  }
}