{
  "name": {
    "default": "Social Democratic Party",
    "2020-06-03T00:00:00": "Worker's Liberal Party",
    "2020-06-21T00:00:00": "Social Democratic Party"
  },
  "emote": {"default": "<:alliance:724365261456539729>"},
  "id": 42
}