{
  "img": "https://xombp.prv.cymru/facesteal/lofthouse.png",
  "name": "Jeffrey Lofthouse",
  "id": 135,
  "user": "631700922099040257",
  "party": {
    "default": 0,
    "2020-08-17T00:00:00": 3,
    "2020-10-29T00:00:00": 0,
    "2021-01-08T00:00:00": 3
  }
}