{
  "img": "https://xombp.prv.cymru/facesteal/thomas_skinner.png",
  "name": "Thomas Skinner",
  "id": 200,
  "user": "631700922099040257",
  "party": {
    "default": 0,
    "2020-06-03T00:00:00": 42,
    "2020-07-19T00:00:00": 0,
    "2019-12-01T00:00:00": 3
  }
}